{
    "page": 1,
    "per_page": 10,
    "photos": [
        {
            "id": 27660062,
            "width": 4000,
            "height": 6000,
            "url": "https://www.pexels.com/photo/a-person-in-a-tunnel-27660062/",
            "photographer": "Alejandro De Roa",
            "photographer_url": "https://www.pexels.com/@alejandro-de-roa-649065356",
            "photographer_id": 649065356,
            "avg_color": "#1F1810",
            "src": {
                "original": "https://images.pexels.com/photos/27660062/pexels-photo-27660062.jpeg",
                "large2x": "https://images.pexels.com/photos/27660062/pexels-photo-27660062.jpeg?auto=compress\u0026cs=tinysrgb\u0026dpr=2\u0026h=650\u0026w=940",
                "large": "https://images.pexels.com/photos/27660062/pexels-photo-27660062.jpeg?auto=compress\u0026cs=tinysrgb\u0026h=650\u0026w=940",
                "medium": "https://images.pexels.com/photos/27660062/pexels-photo-27660062.jpeg?auto=compress\u0026cs=tinysrgb\u0026h=350",
                "small": "https://images.pexels.com/photos/27660062/pexels-photo-27660062.jpeg?auto=compress\u0026cs=tinysrgb\u0026h=130",
                "portrait": "https://images.pexels.com/photos/27660062/pexels-photo-27660062.jpeg?auto=compress\u0026cs=tinysrgb\u0026fit=crop\u0026h=1200\u0026w=800",
                "landscape": "https://images.pexels.com/photos/27660062/pexels-photo-27660062.jpeg?auto=compress\u0026cs=tinysrgb\u0026fit=crop\u0026h=627\u0026w=1200",
                "tiny": "https://images.pexels.com/photos/27660062/pexels-photo-27660062.jpeg?auto=compress\u0026cs=tinysrgb\u0026dpr=1\u0026fit=crop\u0026h=200\u0026w=280"
            },
            "liked": false,
            "alt": "A man walking through a tunnel at night"
        }
    ],
    "total_results": 8000,
    "next_page": "https://api.pexels.com/v1/curated/?page=2\u0026per_page=10"
}